Old food data
|----------------------|-----------------|------------|
|                 name |            type |     weight |
|----------------------|-----------------|------------|
| item3                | bread           | 250        |
| item1                | meat            | 250        |
| item5                | meat            | 500        |
| item4                | milk            | 1000       |
| item2                | oil             | 280        |
|----------------------|-----------------|------------|
New food data
|----------------------|-----------------|------------|
|                 name |            type |     weight |
|----------------------|-----------------|------------|
| item3                | bread           | 250        |
| item1                | meat            | 250        |
| item5                | meat            | 500        |
| item4                | milk            | 1000       |
| item2                | oil             | 280        |
|----------------------|-----------------|------------|
